16 0.00
24 0.00
32 0.00
40 0.00
48 0.02
56 0.03
64 0.04
72 0.04
80 0.07
88 0.11
96 0.12
104 0.16
112 0.22
120 0.23
128 0.29
136 0.32
144 0.40
152 0.47
160 0.55
168 0.63
176 0.74
184 0.93
192 1.10
200 1.08
208 1.19
216 1.37
224 1.60
232 1.67
240 1.85
248 2.10
256 2.45
