<?xml version="1.0" encoding="utf-8"  standalone="no"?>
<svg 
 width="600" height="480"
 viewBox="0 0 600 480"
 xmlns="http://www.w3.org/2000/svg"
 xmlns:xlink="http://www.w3.org/1999/xlink"
>

<title>Gnuplot</title>
<desc>Produced by GNUPLOT 5.2 patchlevel 2 </desc>

<g id="gnuplot_canvas">

<rect x="0" y="0" width="600" height="480" fill="none"/>
<defs>

	<circle id='gpDot' r='0.5' stroke-width='0.5'/>
	<path id='gpPt0' stroke-width='0.222' stroke='currentColor' d='M-1,0 h2 M0,-1 v2'/>
	<path id='gpPt1' stroke-width='0.222' stroke='currentColor' d='M-1,-1 L1,1 M1,-1 L-1,1'/>
	<path id='gpPt2' stroke-width='0.222' stroke='currentColor' d='M-1,0 L1,0 M0,-1 L0,1 M-1,-1 L1,1 M-1,1 L1,-1'/>
	<rect id='gpPt3' stroke-width='0.222' stroke='currentColor' x='-1' y='-1' width='2' height='2'/>
	<rect id='gpPt4' stroke-width='0.222' stroke='currentColor' fill='currentColor' x='-1' y='-1' width='2' height='2'/>
	<circle id='gpPt5' stroke-width='0.222' stroke='currentColor' cx='0' cy='0' r='1'/>
	<use xlink:href='#gpPt5' id='gpPt6' fill='currentColor' stroke='none'/>
	<path id='gpPt7' stroke-width='0.222' stroke='currentColor' d='M0,-1.33 L-1.33,0.67 L1.33,0.67 z'/>
	<use xlink:href='#gpPt7' id='gpPt8' fill='currentColor' stroke='none'/>
	<use xlink:href='#gpPt7' id='gpPt9' stroke='currentColor' transform='rotate(180)'/>
	<use xlink:href='#gpPt9' id='gpPt10' fill='currentColor' stroke='none'/>
	<use xlink:href='#gpPt3' id='gpPt11' stroke='currentColor' transform='rotate(45)'/>
	<use xlink:href='#gpPt11' id='gpPt12' fill='currentColor' stroke='none'/>
	<path id='gpPt13' stroke-width='0.222' stroke='currentColor' d='M0,1.330 L1.265,0.411 L0.782,-1.067 L-0.782,-1.076 L-1.265,0.411 z'/>
	<use xlink:href='#gpPt13' id='gpPt14' fill='currentColor' stroke='none'/>
	<filter id='textbox' filterUnits='objectBoundingBox' x='0' y='0' height='1' width='1'>
	  <feFlood flood-color='white' flood-opacity='1' result='bgnd'/>
	  <feComposite in='SourceGraphic' in2='bgnd' operator='atop'/>
	</filter>
	<filter id='greybox' filterUnits='objectBoundingBox' x='0' y='0' height='1' width='1'>
	  <feFlood flood-color='lightgrey' flood-opacity='1' result='grey'/>
	  <feComposite in='SourceGraphic' in2='grey' operator='atop'/>
	</filter>
</defs>
<g fill="none" color="white" stroke="currentColor" stroke-width="1.00" stroke-linecap="butt" stroke-linejoin="miter">
</g>
<g fill="none" color="black" stroke="currentColor" stroke-width="1.00" stroke-linecap="butt" stroke-linejoin="miter">
	<path stroke='black'  d='M71.9,422.4 L80.9,422.4 M449.8,422.4 L440.8,422.4  '/>	<g transform="translate(63.6,426.3)" stroke="none" fill="black" font-family="Arial" font-size="12.00"  text-anchor="end">
		<text><tspan font-family="Arial" >-0.6</tspan></text>
	</g>
</g>
<g fill="none" color="black" stroke="currentColor" stroke-width="1.00" stroke-linecap="butt" stroke-linejoin="miter">
	<path stroke='black'  d='M71.9,377.5 L80.9,377.5 M449.8,377.5 L440.8,377.5  '/>	<g transform="translate(63.6,381.4)" stroke="none" fill="black" font-family="Arial" font-size="12.00"  text-anchor="end">
		<text><tspan font-family="Arial" >-0.4</tspan></text>
	</g>
</g>
<g fill="none" color="black" stroke="currentColor" stroke-width="1.00" stroke-linecap="butt" stroke-linejoin="miter">
	<path stroke='black'  d='M71.9,332.6 L80.9,332.6 M449.8,332.6 L440.8,332.6  '/>	<g transform="translate(63.6,336.5)" stroke="none" fill="black" font-family="Arial" font-size="12.00"  text-anchor="end">
		<text><tspan font-family="Arial" >-0.2</tspan></text>
	</g>
</g>
<g fill="none" color="black" stroke="currentColor" stroke-width="1.00" stroke-linecap="butt" stroke-linejoin="miter">
	<path stroke='black'  d='M71.9,287.6 L80.9,287.6 M449.8,287.6 L440.8,287.6  '/>	<g transform="translate(63.6,291.5)" stroke="none" fill="black" font-family="Arial" font-size="12.00"  text-anchor="end">
		<text><tspan font-family="Arial" > 0</tspan></text>
	</g>
</g>
<g fill="none" color="black" stroke="currentColor" stroke-width="1.00" stroke-linecap="butt" stroke-linejoin="miter">
	<path stroke='black'  d='M71.9,242.7 L80.9,242.7 M449.8,242.7 L440.8,242.7  '/>	<g transform="translate(63.6,246.6)" stroke="none" fill="black" font-family="Arial" font-size="12.00"  text-anchor="end">
		<text><tspan font-family="Arial" > 0.2</tspan></text>
	</g>
</g>
<g fill="none" color="black" stroke="currentColor" stroke-width="1.00" stroke-linecap="butt" stroke-linejoin="miter">
	<path stroke='black'  d='M71.9,197.8 L80.9,197.8 M449.8,197.8 L440.8,197.8  '/>	<g transform="translate(63.6,201.7)" stroke="none" fill="black" font-family="Arial" font-size="12.00"  text-anchor="end">
		<text><tspan font-family="Arial" > 0.4</tspan></text>
	</g>
</g>
<g fill="none" color="black" stroke="currentColor" stroke-width="1.00" stroke-linecap="butt" stroke-linejoin="miter">
	<path stroke='black'  d='M71.9,152.9 L80.9,152.9 M449.8,152.9 L440.8,152.9  '/>	<g transform="translate(63.6,156.8)" stroke="none" fill="black" font-family="Arial" font-size="12.00"  text-anchor="end">
		<text><tspan font-family="Arial" > 0.6</tspan></text>
	</g>
</g>
<g fill="none" color="black" stroke="currentColor" stroke-width="1.00" stroke-linecap="butt" stroke-linejoin="miter">
	<path stroke='black'  d='M71.9,107.9 L80.9,107.9 M449.8,107.9 L440.8,107.9  '/>	<g transform="translate(63.6,111.8)" stroke="none" fill="black" font-family="Arial" font-size="12.00"  text-anchor="end">
		<text><tspan font-family="Arial" > 0.8</tspan></text>
	</g>
</g>
<g fill="none" color="black" stroke="currentColor" stroke-width="1.00" stroke-linecap="butt" stroke-linejoin="miter">
	<path stroke='black'  d='M71.9,63.0 L80.9,63.0 M449.8,63.0 L440.8,63.0  '/>	<g transform="translate(63.6,66.9)" stroke="none" fill="black" font-family="Arial" font-size="12.00"  text-anchor="end">
		<text><tspan font-family="Arial" > 1</tspan></text>
	</g>
</g>
<g fill="none" color="black" stroke="currentColor" stroke-width="1.00" stroke-linecap="butt" stroke-linejoin="miter">
	<path stroke='black'  d='M71.9,18.1 L80.9,18.1 M449.8,18.1 L440.8,18.1  '/>	<g transform="translate(63.6,22.0)" stroke="none" fill="black" font-family="Arial" font-size="12.00"  text-anchor="end">
		<text><tspan font-family="Arial" > 1.2</tspan></text>
	</g>
</g>
<g fill="none" color="black" stroke="currentColor" stroke-width="1.00" stroke-linecap="butt" stroke-linejoin="miter">
	<path stroke='black'  d='M71.9,422.4 L71.9,413.4 M71.9,18.1 L71.9,27.1  '/>	<g transform="translate(71.9,444.3)" stroke="none" fill="black" font-family="Arial" font-size="12.00"  text-anchor="middle">
		<text><tspan font-family="Arial" >-16</tspan></text>
	</g>
</g>
<g fill="none" color="black" stroke="currentColor" stroke-width="1.00" stroke-linecap="butt" stroke-linejoin="miter">
	<path stroke='black'  d='M113.9,422.4 L113.9,413.4 M113.9,18.1 L113.9,27.1  '/>	<g transform="translate(113.9,444.3)" stroke="none" fill="black" font-family="Arial" font-size="12.00"  text-anchor="middle">
		<text><tspan font-family="Arial" >-14</tspan></text>
	</g>
</g>
<g fill="none" color="black" stroke="currentColor" stroke-width="1.00" stroke-linecap="butt" stroke-linejoin="miter">
	<path stroke='black'  d='M155.9,422.4 L155.9,413.4 M155.9,18.1 L155.9,27.1  '/>	<g transform="translate(155.9,444.3)" stroke="none" fill="black" font-family="Arial" font-size="12.00"  text-anchor="middle">
		<text><tspan font-family="Arial" >-12</tspan></text>
	</g>
</g>
<g fill="none" color="black" stroke="currentColor" stroke-width="1.00" stroke-linecap="butt" stroke-linejoin="miter">
	<path stroke='black'  d='M197.9,422.4 L197.9,413.4 M197.9,18.1 L197.9,27.1  '/>	<g transform="translate(197.9,444.3)" stroke="none" fill="black" font-family="Arial" font-size="12.00"  text-anchor="middle">
		<text><tspan font-family="Arial" >-10</tspan></text>
	</g>
</g>
<g fill="none" color="black" stroke="currentColor" stroke-width="1.00" stroke-linecap="butt" stroke-linejoin="miter">
	<path stroke='black'  d='M239.9,422.4 L239.9,413.4 M239.9,18.1 L239.9,27.1  '/>	<g transform="translate(239.9,444.3)" stroke="none" fill="black" font-family="Arial" font-size="12.00"  text-anchor="middle">
		<text><tspan font-family="Arial" >-8</tspan></text>
	</g>
</g>
<g fill="none" color="black" stroke="currentColor" stroke-width="1.00" stroke-linecap="butt" stroke-linejoin="miter">
	<path stroke='black'  d='M281.8,422.4 L281.8,413.4 M281.8,18.1 L281.8,27.1  '/>	<g transform="translate(281.8,444.3)" stroke="none" fill="black" font-family="Arial" font-size="12.00"  text-anchor="middle">
		<text><tspan font-family="Arial" >-6</tspan></text>
	</g>
</g>
<g fill="none" color="black" stroke="currentColor" stroke-width="1.00" stroke-linecap="butt" stroke-linejoin="miter">
	<path stroke='black'  d='M323.8,422.4 L323.8,413.4 M323.8,18.1 L323.8,27.1  '/>	<g transform="translate(323.8,444.3)" stroke="none" fill="black" font-family="Arial" font-size="12.00"  text-anchor="middle">
		<text><tspan font-family="Arial" >-4</tspan></text>
	</g>
</g>
<g fill="none" color="black" stroke="currentColor" stroke-width="1.00" stroke-linecap="butt" stroke-linejoin="miter">
	<path stroke='black'  d='M365.8,422.4 L365.8,413.4 M365.8,18.1 L365.8,27.1  '/>	<g transform="translate(365.8,444.3)" stroke="none" fill="black" font-family="Arial" font-size="12.00"  text-anchor="middle">
		<text><tspan font-family="Arial" >-2</tspan></text>
	</g>
</g>
<g fill="none" color="black" stroke="currentColor" stroke-width="1.00" stroke-linecap="butt" stroke-linejoin="miter">
	<path stroke='black'  d='M407.8,422.4 L407.8,413.4 M407.8,18.1 L407.8,27.1  '/>	<g transform="translate(407.8,444.3)" stroke="none" fill="black" font-family="Arial" font-size="12.00"  text-anchor="middle">
		<text><tspan font-family="Arial" > 0</tspan></text>
	</g>
</g>
<g fill="none" color="black" stroke="currentColor" stroke-width="1.00" stroke-linecap="butt" stroke-linejoin="miter">
	<path stroke='black'  d='M449.8,422.4 L449.8,413.4 M449.8,18.1 L449.8,27.1  '/>	<g transform="translate(449.8,444.3)" stroke="none" fill="black" font-family="Arial" font-size="12.00"  text-anchor="middle">
		<text><tspan font-family="Arial" > 2</tspan></text>
	</g>
</g>
<g fill="none" color="black" stroke="currentColor" stroke-width="1.00" stroke-linecap="butt" stroke-linejoin="miter">
</g>
<g fill="none" color="black" stroke="currentColor" stroke-width="1.00" stroke-linecap="butt" stroke-linejoin="miter">
	<path stroke='black'  d='M71.9,18.1 L71.9,422.4 L449.8,422.4 L449.8,18.1 L71.9,18.1 Z  '/></g>
<g fill="none" color="black" stroke="currentColor" stroke-width="1.00" stroke-linecap="butt" stroke-linejoin="miter">
	<g transform="translate(16.3,220.3) rotate(270)" stroke="none" fill="black" font-family="Arial" font-size="12.00"  text-anchor="middle">
		<text><tspan font-family="Arial" >y</tspan></text>
	</g>
</g>
<g fill="none" color="black" stroke="currentColor" stroke-width="1.00" stroke-linecap="butt" stroke-linejoin="miter">
	<g transform="translate(260.8,471.3)" stroke="none" fill="black" font-family="Arial" font-size="12.00"  text-anchor="middle">
		<text><tspan font-family="Arial" >x</tspan></text>
	</g>
</g>
<g fill="none" color="black" stroke="currentColor" stroke-width="1.00" stroke-linecap="butt" stroke-linejoin="miter">
</g>
	<g id="gnuplot_plot_1" ><title>AiryAi(x)</title>
<g fill="none" color="black" stroke="currentColor" stroke-width="1.00" stroke-linecap="butt" stroke-linejoin="miter">
	<g transform="translate(532.8,31.0)" stroke="none" fill="black" font-family="Arial" font-size="12.00"  text-anchor="end">
		<text><tspan font-family="Arial" >Airy</tspan><tspan font-family="Arial"  font-size="9.6" dy="3.60px">A</tspan><tspan font-family="Arial"  font-size="12.0" dy="-3.60px">i(x)</tspan></text>
	</g>
</g>
<g fill="none" color="black" stroke="currentColor" stroke-width="1.00" stroke-linecap="butt" stroke-linejoin="miter">
	<path stroke='rgb(148,   0, 211)'  d='M541.1,27.1 L583.3,27.1 M92.9,225.1 L93.1,224.6 L93.3,224.1 L93.5,223.7 L93.7,223.5 L93.9,223.3
		L94.2,223.2 L94.4,223.2 L94.6,223.3 L94.8,223.5 L95.0,223.8 L95.2,224.2 L95.4,224.7 L95.6,225.3
		L95.8,225.9 L96.0,226.7 L96.3,227.5 L96.5,228.5 L96.7,229.5 L96.9,230.6 L97.1,231.8 L97.3,233.1
		L97.5,234.5 L97.7,235.9 L97.9,237.5 L98.1,239.1 L98.4,240.7 L98.6,242.5 L98.8,244.3 L99.0,246.1
		L99.2,248.0 L99.4,250.0 L99.6,252.1 L99.8,254.2 L100.0,256.3 L100.2,258.5 L100.5,260.7 L100.7,263.0
		L100.9,265.3 L101.1,267.6 L101.3,270.0 L101.5,272.4 L101.7,274.8 L101.9,277.2 L102.1,279.7 L102.3,282.2
		L102.6,284.6 L102.8,287.1 L103.0,289.6 L103.2,292.0 L103.4,294.5 L103.6,297.0 L103.8,299.4 L104.0,301.8
		L104.2,304.2 L104.4,306.6 L104.7,309.0 L104.9,311.3 L105.1,313.6 L105.3,315.8 L105.5,318.0 L105.7,320.2
		L105.9,322.3 L106.1,324.4 L106.3,326.4 L106.5,328.4 L106.8,330.3 L107.0,332.1 L107.2,333.9 L107.4,335.6
		L107.6,337.2 L107.8,338.8 L108.0,340.3 L108.2,341.7 L108.4,343.1 L108.6,344.3 L108.9,345.5 L109.1,346.6
		L109.3,347.6 L109.5,348.6 L109.7,349.4 L109.9,350.2 L110.1,350.9 L110.3,351.4 L110.5,351.9 L110.7,352.3
		L110.9,352.6 L111.2,352.9 L111.4,353.0 L111.6,353.0 L111.8,353.0 L112.0,352.8 L112.2,352.6 L112.4,352.2
		L112.6,351.8 L112.8,351.3 L113.0,350.7 L113.3,350.0 L113.5,349.2 L113.7,348.3 L113.9,347.4 L114.1,346.3
		L114.3,345.2 L114.5,344.0 L114.7,342.7 L114.9,341.4 L115.1,340.0 L115.4,338.5 L115.6,336.9 L115.8,335.2
		L116.0,333.5 L116.2,331.8 L116.4,329.9 L116.6,328.0 L116.8,326.1 L117.0,324.1 L117.2,322.0 L117.5,319.9
		L117.7,317.8 L117.9,315.6 L118.1,313.4 L118.3,311.1 L118.5,308.8 L118.7,306.5 L118.9,304.2 L119.1,301.8
		L119.3,299.4 L119.6,297.0 L119.8,294.6 L120.0,292.1 L120.2,289.7 L120.4,287.3 L120.6,284.8 L120.8,282.4
		L121.0,280.0 L121.2,277.6 L121.4,275.2 L121.7,272.8 L121.9,270.4 L122.1,268.1 L122.3,265.8 L122.5,263.5
		L122.7,261.2 L122.9,259.0 L123.1,256.8 L123.3,254.7 L123.5,252.6 L123.8,250.6 L124.0,248.6 L124.2,246.6
		L124.4,244.7 L124.6,242.9 L124.8,241.1 L125.0,239.4 L125.2,237.8 L125.4,236.2 L125.6,234.7 L125.9,233.3
		L126.1,231.9 L126.3,230.7 L126.5,229.4 L126.7,228.3 L126.9,227.3 L127.1,226.3 L127.3,225.4 L127.5,224.6
		L127.7,223.9 L128.0,223.2 L128.2,222.7 L128.4,222.2 L128.6,221.9 L128.8,221.6 L129.0,221.4 L129.2,221.3
		L129.4,221.2 L129.6,221.3 L129.8,221.4 L130.1,221.7 L130.3,222.0 L130.5,222.4 L130.7,222.9 L130.9,223.5
		L131.1,224.2 L131.3,224.9 L131.5,225.8 L131.7,226.7 L131.9,227.7 L132.2,228.8 L132.4,229.9 L132.6,231.1
		L132.8,232.4 L133.0,233.8 L133.2,235.3 L133.4,236.8 L133.6,238.4 L133.8,240.0 L134.0,241.7 L134.3,243.5
		L134.5,245.3 L134.7,247.2 L134.9,249.1 L135.1,251.1 L135.3,253.1 L135.5,255.2 L135.7,257.3 L135.9,259.5
		L136.1,261.7 L136.4,263.9 L136.6,266.1 L136.8,268.4 L137.0,270.7 L137.2,273.1 L137.4,275.4 L137.6,277.8
		L137.8,280.2 L138.0,282.5 L138.2,284.9 L138.5,287.3 L138.7,289.7 L138.9,292.1 L139.1,294.5 L139.3,296.9
		L139.5,299.3 L139.7,301.6 L139.9,304.0 L140.1,306.3 L140.3,308.6 L140.6,310.8 L140.8,313.1 L141.0,315.3
		L141.2,317.4 L141.4,319.6 L141.6,321.7 L141.8,323.7 L142.0,325.7 L142.2,327.7 L142.4,329.6 L142.7,331.4
		L142.9,333.2 L143.1,334.9 L143.3,336.6 L143.5,338.2 L143.7,339.8 L143.9,341.3 L144.1,342.7 L144.3,344.0
		L144.5,345.3 L144.8,346.5 L145.0,347.7 L145.2,348.7 L145.4,349.7 L145.6,350.6 L145.8,351.4 L146.0,352.2
		L146.2,352.8 L146.4,353.4 L146.6,353.9 L146.9,354.3 L147.1,354.7 L147.3,354.9 L147.5,355.1 L147.7,355.2
		L147.9,355.2 L148.1,355.1 L148.3,354.9 L148.5,354.7 L148.7,354.3 L148.9,353.9 L149.2,353.4 L149.4,352.9
		L149.6,352.2 L149.8,351.5 L150.0,350.7 L150.2,349.8 L150.4,348.8 L150.6,347.7 L150.8,346.6 L151.0,345.4
		L151.3,344.2 L151.5,342.9 L151.7,341.5 L151.9,340.0 L152.1,338.5 L152.3,336.9 L152.5,335.2 L152.7,333.5
		L152.9,331.8 L153.1,330.0 L153.4,328.1 L153.6,326.2 L153.8,324.2 L154.0,322.2 L154.2,320.2 L154.4,318.1
		L154.6,315.9 L154.8,313.8 L155.0,311.6 L155.2,309.4 L155.5,307.1 L155.7,304.9 L155.9,302.6 L156.1,300.3
		L156.3,298.0 L156.5,295.6 L156.7,293.3 L156.9,290.9 L157.1,288.6 L157.3,286.2 L157.6,283.9 L157.8,281.5
		L158.0,279.2 L158.2,276.8 L158.4,274.5 L158.6,272.2 L158.8,269.9 L159.0,267.7 L159.2,265.4 L159.4,263.2
		L159.7,261.0 L159.9,258.9 L160.1,256.8 L160.3,254.7 L160.5,252.6 L160.7,250.6 L160.9,248.7 L161.1,246.7
		L161.3,244.9 L161.5,243.1 L161.8,241.3 L162.0,239.6 L162.2,237.9 L162.4,236.3 L162.6,234.8 L162.8,233.3
		L163.0,231.9 L163.2,230.6 L163.4,229.3 L163.6,228.1 L163.9,227.0 L164.1,225.9 L164.3,224.9 L164.5,224.0
		L164.7,223.1 L164.9,222.3 L165.1,221.6 L165.3,221.0 L165.5,220.4 L165.7,220.0 L166.0,219.6 L166.2,219.3
		L166.4,219.0 L166.6,218.9 L166.8,218.8 L167.0,218.8 L167.2,218.9 L167.4,219.0 L167.6,219.3 L167.8,219.6
		L168.1,220.0 L168.3,220.4 L168.5,221.0 L168.7,221.6 L168.9,222.3 L169.1,223.1 L169.3,223.9 L169.5,224.9
		L169.7,225.8 L169.9,226.9 L170.2,228.0 L170.4,229.2 L170.6,230.5 L170.8,231.8 L171.0,233.2 L171.2,234.6
		L171.4,236.2 L171.6,237.7 L171.8,239.4 L172.0,241.0 L172.3,242.8 L172.5,244.5 L172.7,246.4 L172.9,248.2
		L173.1,250.2 L173.3,252.1 L173.5,254.1 L173.7,256.2 L173.9,258.2 L174.1,260.3 L174.4,262.5 L174.6,264.7
		L174.8,266.8 L175.0,269.1 L175.2,271.3 L175.4,273.5 L175.6,275.8 L175.8,278.1 L176.0,280.4 L176.2,282.7
		L176.5,285.0 L176.7,287.3 L176.9,289.6 L177.1,291.9 L177.3,294.2 L177.5,296.5 L177.7,298.8 L177.9,301.1
		L178.1,303.3 L178.3,305.6 L178.6,307.8 L178.8,310.0 L179.0,312.2 L179.2,314.3 L179.4,316.4 L179.6,318.5
		L179.8,320.6 L180.0,322.6 L180.2,324.6 L180.4,326.5 L180.7,328.4 L180.9,330.2 L181.1,332.1 L181.3,333.8
		L181.5,335.5 L181.7,337.2 L181.9,338.8 L182.1,340.3 L182.3,341.8 L182.5,343.3 L182.8,344.6 L183.0,346.0
		L183.2,347.2 L183.4,348.4 L183.6,349.5 L183.8,350.6 L184.0,351.6 L184.2,352.5 L184.4,353.3 L184.6,354.1
		L184.9,354.8 L185.1,355.5 L185.3,356.0 L185.5,356.5 L185.7,357.0 L185.9,357.3 L186.1,357.6 L186.3,357.8
		L186.5,357.9 L186.7,358.0 L186.9,358.0 L187.2,357.9 L187.4,357.7 L187.6,357.5 L187.8,357.1 L188.0,356.8
		L188.2,356.3 L188.4,355.8 L188.6,355.2 L188.8,354.5 L189.0,353.7 L189.3,352.9 L189.5,352.1 L189.7,351.1
		L189.9,350.1 L190.1,349.0 L190.3,347.9 L190.5,346.7 L190.7,345.4 L190.9,344.1 L191.1,342.7 L191.4,341.3
		L191.6,339.8 L191.8,338.2 L192.0,336.6 L192.2,335.0 L192.4,333.3 L192.6,331.5 L192.8,329.7 L193.0,327.9
		L193.2,326.0 L193.5,324.1 L193.7,322.2 L193.9,320.2 L194.1,318.1 L194.3,316.1 L194.5,314.0 L194.7,311.9
		L194.9,309.8 L195.1,307.6 L195.3,305.4 L195.6,303.3 L195.8,301.0 L196.0,298.8 L196.2,296.6 L196.4,294.4
		L196.6,292.1 L196.8,289.8 L197.0,287.6 L197.2,285.3 L197.4,283.1 L197.7,280.8 L197.9,278.6 L198.1,276.4
		L198.3,274.1 L198.5,271.9 L198.7,269.7 L198.9,267.6 L199.1,265.4 L199.3,263.3 L199.5,261.2 L199.8,259.1
		L200.0,257.0 L200.2,255.0 L200.4,253.0 L200.6,251.1 L200.8,249.1 L201.0,247.3 L201.2,245.4 L201.4,243.6
		L201.6,241.9 L201.9,240.1 L202.1,238.5 L202.3,236.9 L202.5,235.3 L202.7,233.8 L202.9,232.3 L203.1,230.9
		L203.3,229.5 L203.5,228.2 L203.7,227.0 L204.0,225.8 L204.2,224.7 L204.4,223.6 L204.6,222.6 L204.8,221.7
		L205.0,220.8 L205.2,220.0 L205.4,219.3 L205.6,218.6 L205.8,218.0 L206.1,217.4 L206.3,217.0 L206.5,216.6
		L206.7,216.2 L206.9,215.9 L207.1,215.7 L207.3,215.6 L207.5,215.5 L207.7,215.5 L207.9,215.6 L208.2,215.8
		L208.4,216.0 L208.6,216.2 L208.8,216.6 L209.0,217.0 L209.2,217.5 L209.4,218.0 L209.6,218.6 L209.8,219.3
		L210.0,220.0 L210.3,220.8 L210.5,221.7 L210.7,222.6 L210.9,223.6 L211.1,224.7 L211.3,225.8 L211.5,227.0
		L211.7,228.2 L211.9,229.5 L212.1,230.8 L212.4,232.2 L212.6,233.6 L212.8,235.1 L213.0,236.6 L213.2,238.2
		L213.4,239.9 L213.6,241.5 L213.8,243.3 L214.0,245.0 L214.2,246.8 L214.5,248.6 L214.7,250.5 L214.9,252.4
		L215.1,254.4 L215.3,256.3 L215.5,258.3 L215.7,260.3 L215.9,262.4 L216.1,264.5 L216.3,266.6 L216.6,268.7
		L216.8,270.8 L217.0,272.9 L217.2,275.1 L217.4,277.3 L217.6,279.4 L217.8,281.6 L218.0,283.8 L218.2,286.0
		L218.4,288.2 L218.7,290.4 L218.9,292.6 L219.1,294.8 L219.3,297.0 L219.5,299.2 L219.7,301.3 L219.9,303.5
		L220.1,305.6 L220.3,307.7 L220.5,309.8 L220.8,311.9 L221.0,314.0 L221.2,316.0 L221.4,318.0 L221.6,320.0
		L221.8,322.0 L222.0,323.9 L222.2,325.8 L222.4,327.7 L222.6,329.5 L222.9,331.3 L223.1,333.0 L223.3,334.7
		L223.5,336.4 L223.7,338.0 L223.9,339.6 L224.1,341.1 L224.3,342.6 L224.5,344.1 L224.7,345.5 L224.9,346.8
		L225.2,348.1 L225.4,349.3 L225.6,350.5 L225.8,351.7 L226.0,352.7 L226.2,353.7 L226.4,354.7 L226.6,355.6
		L226.8,356.5 L227.0,357.2 L227.3,358.0 L227.5,358.6 L227.7,359.2 L227.9,359.8 L228.1,360.3 L228.3,360.7
		L228.5,361.0 L228.7,361.3 L228.9,361.5 L229.1,361.7 L229.4,361.8 L229.6,361.9 L229.8,361.8 L230.0,361.8
		L230.2,361.6 L230.4,361.4 L230.6,361.1 L230.8,360.8 L231.0,360.4 L231.2,359.9 L231.5,359.4 L231.7,358.8
		L231.9,358.2 L232.1,357.5 L232.3,356.7 L232.5,355.9 L232.7,355.1 L232.9,354.1 L233.1,353.2 L233.3,352.1
		L233.6,351.0 L233.8,349.9 L234.0,348.7 L234.2,347.4 L234.4,346.1 L234.6,344.8 L234.8,343.4 L235.0,342.0
		L235.2,340.5 L235.4,339.0 L235.7,337.4 L235.9,335.8 L236.1,334.2 L236.3,332.5 L236.5,330.7 L236.7,329.0
		L236.9,327.2 L237.1,325.4 L237.3,323.5 L237.5,321.6 L237.8,319.7 L238.0,317.8 L238.2,315.8 L238.4,313.9
		L238.6,311.8 L238.8,309.8 L239.0,307.8 L239.2,305.7 L239.4,303.7 L239.6,301.6 L239.9,299.5 L240.1,297.4
		L240.3,295.3 L240.5,293.1 L240.7,291.0 L240.9,288.9 L241.1,286.8 L241.3,284.6 L241.5,282.5 L241.7,280.4
		L242.0,278.3 L242.2,276.2 L242.4,274.1 L242.6,272.0 L242.8,269.9 L243.0,267.8 L243.2,265.8 L243.4,263.8
		L243.6,261.8 L243.8,259.8 L244.1,257.8 L244.3,255.8 L244.5,253.9 L244.7,252.0 L244.9,250.2 L245.1,248.3
		L245.3,246.5 L245.5,244.7 L245.7,243.0 L245.9,241.3 L246.2,239.6 L246.4,238.0 L246.6,236.4 L246.8,234.8
		L247.0,233.3 L247.2,231.8 L247.4,230.4 L247.6,229.0 L247.8,227.7 L248.0,226.4 L248.3,225.1 L248.5,223.9
		L248.7,222.8 L248.9,221.7 L249.1,220.6 L249.3,219.6 L249.5,218.7 L249.7,217.7 L249.9,216.9 L250.1,216.1
		L250.4,215.4 L250.6,214.7 L250.8,214.0 L251.0,213.5 L251.2,212.9 L251.4,212.5 L251.6,212.1 L251.8,211.7
		L252.0,211.4 L252.2,211.2 L252.5,211.0 L252.7,210.8 L252.9,210.8 L253.1,210.8 L253.3,210.8 L253.5,210.9
		L253.7,211.0 L253.9,211.3 L254.1,211.5 L254.3,211.8 L254.6,212.2 L254.8,212.6 L255.0,213.1 L255.2,213.7
		L255.4,214.3 L255.6,214.9 L255.8,215.6 L256.0,216.4 L256.2,217.2 L256.4,218.0 L256.7,218.9 L256.9,219.9
		L257.1,220.9 L257.3,221.9 L257.5,223.0 L257.7,224.2 L257.9,225.4 L258.1,226.6 L258.3,227.9 L258.5,229.2
		L258.8,230.6 L259.0,232.0 L259.2,233.4 L259.4,234.9 L259.6,236.4 L259.8,238.0 L260.0,239.6 L260.2,241.2
		L260.4,242.8 L260.6,244.5 L260.9,246.2 L261.1,248.0 L261.3,249.8 L261.5,251.6 L261.7,253.4 L261.9,255.2
		L262.1,257.1 L262.3,259.0 L262.5,260.9 L262.7,262.8 L262.9,264.8 L263.2,266.8 L263.4,268.7 L263.6,270.7
		L263.8,272.7 L264.0,274.7 L264.2,276.8 L264.4,278.8 L264.6,280.8 L264.8,282.9 L265.0,284.9 L265.3,287.0
		L265.5,289.0 L265.7,291.1 L265.9,293.1 L266.1,295.1 L266.3,297.2 L266.5,299.2 L266.7,301.2 L266.9,303.2
		L267.1,305.2 L267.4,307.2 L267.6,309.2 L267.8,311.1 L268.0,313.1 L268.2,315.0 L268.4,316.9 L268.6,318.8
		L268.8,320.7 L269.0,322.5 L269.2,324.4 L269.5,326.2 L269.7,327.9 L269.9,329.7 L270.1,331.4 L270.3,333.1
		L270.5,334.8 L270.7,336.4 L270.9,338.0 L271.1,339.6 L271.3,341.1 L271.6,342.6 L271.8,344.1 L272.0,345.5
		L272.2,346.9 L272.4,348.2 L272.6,349.5 L272.8,350.8 L273.0,352.0 L273.2,353.2 L273.4,354.4 L273.7,355.5
		L273.9,356.5 L274.1,357.6 L274.3,358.5 L274.5,359.5 L274.7,360.3 L274.9,361.2 L275.1,362.0 L275.3,362.7
		L275.5,363.4 L275.8,364.1 L276.0,364.7 L276.2,365.2 L276.4,365.7 L276.6,366.2 L276.8,366.6 L277.0,366.9
		L277.2,367.2 L277.4,367.5 L277.6,367.7 L277.9,367.8 L278.1,368.0 L278.3,368.0 L278.5,368.0 L278.7,368.0
		L278.9,367.9 L279.1,367.7 L279.3,367.6 L279.5,367.3 L279.7,367.0 L280.0,366.7 L280.2,366.3 L280.4,365.9
		L280.6,365.4 L280.8,364.9 L281.0,364.3 L281.2,363.7 L281.4,363.0 L281.6,362.3 L281.8,361.6 L282.1,360.8
		L282.3,359.9 L282.5,359.0 L282.7,358.1 L282.9,357.1 L283.1,356.1 L283.3,355.1 L283.5,354.0 L283.7,352.8
		L283.9,351.7 L284.2,350.5 L284.4,349.2 L284.6,347.9 L284.8,346.6 L285.0,345.3 L285.2,343.9 L285.4,342.5
		L285.6,341.0 L285.8,339.5 L286.0,338.0 L286.3,336.5 L286.5,334.9 L286.7,333.3 L286.9,331.7 L287.1,330.0
		L287.3,328.4 L287.5,326.7 L287.7,325.0 L287.9,323.2 L288.1,321.5 L288.4,319.7 L288.6,317.9 L288.8,316.1
		L289.0,314.2 L289.2,312.4 L289.4,310.5 L289.6,308.7 L289.8,306.8 L290.0,304.9 L290.2,303.0 L290.5,301.1
		L290.7,299.1 L290.9,297.2 L291.1,295.3 L291.3,293.4 L291.5,291.4 L291.7,289.5 L291.9,287.5 L292.1,285.6
		L292.3,283.6 L292.6,281.7 L292.8,279.8 L293.0,277.8 L293.2,275.9 L293.4,274.0 L293.6,272.1 L293.8,270.2
		L294.0,268.3 L294.2,266.4 L294.4,264.5 L294.7,262.7 L294.9,260.8 L295.1,259.0 L295.3,257.2 L295.5,255.4
		L295.7,253.6 L295.9,251.8 L296.1,250.1 L296.3,248.3 L296.5,246.6 L296.8,244.9 L297.0,243.3 L297.2,241.6
		L297.4,240.0 L297.6,238.4 L297.8,236.9 L298.0,235.3 L298.2,233.8 L298.4,232.4 L298.6,230.9 L298.8,229.5
		L299.1,228.1 L299.3,226.7 L299.5,225.4 L299.7,224.1 L299.9,222.8 L300.1,221.6 L300.3,220.4 L300.5,219.2
		L300.7,218.1 L300.9,217.0 L301.2,216.0 L301.4,214.9 L301.6,214.0 L301.8,213.0 L302.0,212.1 L302.2,211.2
		L302.4,210.4 L302.6,209.6 L302.8,208.8 L303.0,208.1 L303.3,207.5 L303.5,206.8 L303.7,206.2 L303.9,205.7
		L304.1,205.2 L304.3,204.7 L304.5,204.3 L304.7,203.9 L304.9,203.5 L305.1,203.2 L305.4,202.9 L305.6,202.7
		L305.8,202.5 L306.0,202.4 L306.2,202.3 L306.4,202.2 L306.6,202.2 L306.8,202.2 L307.0,202.3 L307.2,202.4
		L307.5,202.5 L307.7,202.7 L307.9,202.9 L308.1,203.2 L308.3,203.5 L308.5,203.8 L308.7,204.2 L308.9,204.7
		L309.1,205.1 L309.3,205.6 L309.6,206.2 L309.8,206.7 L310.0,207.4 L310.2,208.0 L310.4,208.7 L310.6,209.4
		L310.8,210.2 L311.0,211.0 L311.2,211.8 L311.4,212.7 L311.7,213.6 L311.9,214.5 L312.1,215.5 L312.3,216.5
		L312.5,217.6 L312.7,218.6 L312.9,219.7 L313.1,220.9 L313.3,222.0 L313.5,223.2 L313.8,224.4 L314.0,225.7
		L314.2,226.9 L314.4,228.2 L314.6,229.6 L314.8,230.9 L315.0,232.3 L315.2,233.7 L315.4,235.1 L315.6,236.6
		L315.9,238.1 L316.1,239.6 L316.3,241.1 L316.5,242.6 L316.7,244.2 L316.9,245.7 L317.1,247.3 L317.3,248.9
		L317.5,250.6 L317.7,252.2 L318.0,253.9 L318.2,255.5 L318.4,257.2 L318.6,258.9 L318.8,260.6 L319.0,262.4
		L319.2,264.1 L319.4,265.8 L319.6,267.6 L319.8,269.4 L320.1,271.1 L320.3,272.9 L320.5,274.7 L320.7,276.5
		L320.9,278.3 L321.1,280.1 L321.3,281.9 L321.5,283.7 L321.7,285.5 L321.9,287.3 L322.2,289.1 L322.4,290.9
		L322.6,292.7 L322.8,294.5 L323.0,296.3 L323.2,298.1 L323.4,299.9 L323.6,301.6 L323.8,303.4 L324.0,305.2
		L324.3,307.0 L324.5,308.7 L324.7,310.5 L324.9,312.2 L325.1,313.9 L325.3,315.7 L325.5,317.4 L325.7,319.1
		L325.9,320.7 L326.1,322.4 L326.4,324.1 L326.6,325.7 L326.8,327.4 L327.0,329.0 L327.2,330.6 L327.4,332.1
		L327.6,333.7 L327.8,335.3 L328.0,336.8 L328.2,338.3 L328.5,339.8 L328.7,341.3 L328.9,342.7 L329.1,344.1
		L329.3,345.6 L329.5,346.9 L329.7,348.3 L329.9,349.7 L330.1,351.0 L330.3,352.3 L330.6,353.5 L330.8,354.8
		L331.0,356.0 L331.2,357.2 L331.4,358.4 L331.6,359.5 L331.8,360.7 L332.0,361.8 L332.2,362.8 L332.4,363.9
		L332.7,364.9 L332.9,365.9 L333.1,366.8 L333.3,367.8 L333.5,368.7 L333.7,369.5 L333.9,370.4 L334.1,371.2
		L334.3,372.0 L334.5,372.7 L334.8,373.5 L335.0,374.2 L335.2,374.8 L335.4,375.5 L335.6,376.1 L335.8,376.6
		L336.0,377.2 L336.2,377.7 L336.4,378.2 L336.6,378.6 L336.8,379.1 L337.1,379.5 L337.3,379.8 L337.5,380.2
		L337.7,380.5 L337.9,380.7 L338.1,381.0 L338.3,381.2 L338.5,381.3 L338.7,381.5 L338.9,381.6 L339.2,381.7
		L339.4,381.7 L339.6,381.7 L339.8,381.7 L340.0,381.7 L340.2,381.6 L340.4,381.5 L340.6,381.4 L340.8,381.2
		L341.0,381.0 L341.3,380.8 L341.5,380.6 L341.7,380.3 L341.9,380.0 L342.1,379.6 L342.3,379.3 L342.5,378.9
		L342.7,378.5 L342.9,378.0 L343.1,377.5 L343.4,377.0 L343.6,376.5 L343.8,375.9 L344.0,375.3 L344.2,374.7
		L344.4,374.1 L344.6,373.4 L344.8,372.7 L345.0,372.0 L345.2,371.3 L345.5,370.5 L345.7,369.7 L345.9,368.9
		L346.1,368.0 L346.3,367.2 L346.5,366.3 L346.7,365.4 L346.9,364.4 L347.1,363.5 L347.3,362.5 L347.6,361.5
		L347.8,360.5 L348.0,359.4 L348.2,358.4 L348.4,357.3 L348.6,356.2 L348.8,355.1 L349.0,353.9 L349.2,352.8
		L349.4,351.6 L349.7,350.4 L349.9,349.2 L350.1,347.9 L350.3,346.7 L350.5,345.4 L350.7,344.2 L350.9,342.9
		L351.1,341.5 L351.3,340.2 L351.5,338.9 L351.8,337.5 L352.0,336.2 L352.2,334.8 L352.4,333.4 L352.6,332.0
		L352.8,330.6 L353.0,329.2 L353.2,327.7 L353.4,326.3 L353.6,324.8 L353.9,323.4 L354.1,321.9 L354.3,320.4
		L354.5,318.9 L354.7,317.4 L354.9,315.9 L355.1,314.4 L355.3,312.9 L355.5,311.3 L355.7,309.8 L356.0,308.3
		L356.2,306.7 L356.4,305.2 L356.6,303.6 L356.8,302.1 L357.0,300.5 L357.2,298.9 L357.4,297.4 L357.6,295.8
		L357.8,294.2 L358.1,292.7 L358.3,291.1 L358.5,289.5 L358.7,287.9 L358.9,286.4 L359.1,284.8 L359.3,283.2
		L359.5,281.6 L359.7,280.1 L359.9,278.5 L360.2,276.9 L360.4,275.4 L360.6,273.8 L360.8,272.2 L361.0,270.7
		L361.2,269.1 L361.4,267.6 L361.6,266.0 L361.8,264.5 L362.0,263.0 L362.3,261.4 L362.5,259.9 L362.7,258.4
		L362.9,256.9 L363.1,255.4 L363.3,253.9 L363.5,252.4 L363.7,250.9 L363.9,249.4 L364.1,248.0 L364.4,246.5
		L364.6,245.1 L364.8,243.6 L365.0,242.2 L365.2,240.8 L365.4,239.4 L365.6,237.9 L365.8,236.6 L366.0,235.2
		L366.2,233.8 L366.5,232.4 L366.7,231.1 L366.9,229.7 L367.1,228.4 L367.3,227.1 L367.5,225.8 L367.7,224.5
		L367.9,223.2 L368.1,221.9 L368.3,220.7 L368.6,219.4 L368.8,218.2 L369.0,217.0 L369.2,215.8 L369.4,214.6
		L369.6,213.4 L369.8,212.2 L370.0,211.1 L370.2,210.0 L370.4,208.8 L370.7,207.7 L370.9,206.6 L371.1,205.5
		L371.3,204.5 L371.5,203.4 L371.7,202.4 L371.9,201.4 L372.1,200.3 L372.3,199.4 L372.5,198.4 L372.8,197.4
		L373.0,196.5 L373.2,195.5 L373.4,194.6 L373.6,193.7 L373.8,192.8 L374.0,191.9 L374.2,191.1 L374.4,190.2
		L374.6,189.4 L374.8,188.6 L375.1,187.8 L375.3,187.0 L375.5,186.3 L375.7,185.5 L375.9,184.8 L376.1,184.1
		L376.3,183.4 L376.5,182.7 L376.7,182.0 L376.9,181.3 L377.2,180.7 L377.4,180.1 L377.6,179.5 L377.8,178.9
		L378.0,178.3 L378.2,177.7 L378.4,177.2 L378.6,176.7 L378.8,176.1 L379.0,175.6 L379.3,175.2 L379.5,174.7
		L379.7,174.2 L379.9,173.8 L380.1,173.4 L380.3,173.0 L380.5,172.6 L380.7,172.2 L380.9,171.8 L381.1,171.5
		L381.4,171.1 L381.6,170.8 L381.8,170.5 L382.0,170.2 L382.2,170.0 L382.4,169.7 L382.6,169.4 L382.8,169.2
		L383.0,169.0 L383.2,168.8 L383.5,168.6 L383.7,168.4 L383.9,168.3 L384.1,168.1 L384.3,168.0 L384.5,167.8
		L384.7,167.7 L384.9,167.6 L385.1,167.6 L385.3,167.5 L385.6,167.4 L385.8,167.4 L386.0,167.3 L386.2,167.3
		L386.4,167.3 L386.6,167.3 L386.8,167.3 L387.0,167.4 L387.2,167.4 L387.4,167.5 L387.7,167.5 L387.9,167.6
		L388.1,167.7 L388.3,167.8 L388.5,167.9 L388.7,168.0 L388.9,168.1 L389.1,168.3 L389.3,168.4 L389.5,168.6
		L389.8,168.8 L390.0,169.0 L390.2,169.2 L390.4,169.4 L390.6,169.6 L390.8,169.8 L391.0,170.0 L391.2,170.3
		L391.4,170.5 L391.6,170.8 L391.9,171.1 L392.1,171.3 L392.3,171.6 L392.5,171.9 L392.7,172.2 L392.9,172.5
		L393.1,172.9 L393.3,173.2 L393.5,173.5 L393.7,173.9 L394.0,174.2 L394.2,174.6 L394.4,174.9 L394.6,175.3
		L394.8,175.7 L395.0,176.1 L395.2,176.5 L395.4,176.9 L395.6,177.3 L395.8,177.7 L396.1,178.1 L396.3,178.6
		L396.5,179.0 L396.7,179.4 L396.9,179.9 L397.1,180.3 L397.3,180.8 L397.5,181.2 L397.7,181.7 L397.9,182.2
		L398.2,182.7 L398.4,183.1 L398.6,183.6 L398.8,184.1 L399.0,184.6 L399.2,185.1 L399.4,185.6 L399.6,186.1
		L399.8,186.6 L400.0,187.1 L400.3,187.7 L400.5,188.2 L400.7,188.7 L400.9,189.2 L401.1,189.8 L401.3,190.3
		L401.5,190.8 L401.7,191.4 L401.9,191.9 L402.1,192.5 L402.4,193.0 L402.6,193.6 L402.8,194.1 L403.0,194.7
		L403.2,195.3 L403.4,195.8 L403.6,196.4 L403.8,196.9 L404.0,197.5 L404.2,198.1 L404.5,198.6 L404.7,199.2
		L404.9,199.8 L405.1,200.4 L405.3,200.9 L405.5,201.5 L405.7,202.1 L405.9,202.7 L406.1,203.2 L406.3,203.8
		L406.6,204.4 L406.8,205.0 L407.0,205.6 L407.2,206.1 L407.4,206.7 L407.6,207.3 L407.8,207.9 L408.0,208.5
		L408.2,209.1 L408.4,209.6 L408.7,210.2 L408.9,210.8 L409.1,211.4 L409.3,212.0 L409.5,212.5 L409.7,213.1
		L409.9,213.7 L410.1,214.3 L410.3,214.8 L410.5,215.4 L410.8,216.0 L411.0,216.6 L411.2,217.1 L411.4,217.7
		L411.6,218.3 L411.8,218.9 L412.0,219.4 L412.2,220.0 L412.4,220.5 L412.6,221.1 L412.8,221.7 L413.1,222.2
		L413.3,222.8 L413.5,223.4 L413.7,223.9 L413.9,224.5 L414.1,225.0 L414.3,225.6 L414.5,226.1 L414.7,226.7
		L414.9,227.2 L415.2,227.7 L415.4,228.3 L415.6,228.8 L415.8,229.4 L416.0,229.9 L416.2,230.4 L416.4,230.9
		L416.6,231.5 L416.8,232.0 L417.0,232.5 L417.3,233.0 L417.5,233.6 L417.7,234.1 L417.9,234.6 L418.1,235.1
		L418.3,235.6 L418.5,236.1 L418.7,236.6 L418.9,237.1 L419.1,237.6 L419.4,238.1 L419.6,238.6 L419.8,239.1
		L420.0,239.5 L420.2,240.0 L420.4,240.5 L420.6,241.0 L420.8,241.5 L421.0,241.9 L421.2,242.4 L421.5,242.9
		L421.7,243.3 L421.9,243.8 L422.1,244.2 L422.3,244.7 L422.5,245.1 L422.7,245.6 L422.9,246.0 L423.1,246.5
		L423.3,246.9 L423.6,247.4 L423.8,247.8 L424.0,248.2 L424.2,248.6 L424.4,249.1 L424.6,249.5 L424.8,249.9
		L425.0,250.3 L425.2,250.7 L425.4,251.1 L425.7,251.5 L425.9,251.9 L426.1,252.3 L426.3,252.7 L426.5,253.1
		L426.7,253.5 L426.9,253.9 L427.1,254.3 L427.3,254.7 L427.5,255.0 L427.8,255.4 L428.0,255.8 L428.2,256.2
		L428.4,256.5 L428.6,256.9  '/></g>
	</g>
	<g id="gnuplot_plot_2" ><title>AiryBi(x)</title>
<g fill="none" color="black" stroke="currentColor" stroke-width="1.00" stroke-linecap="butt" stroke-linejoin="miter">
	<g transform="translate(532.8,49.0)" stroke="none" fill="black" font-family="Arial" font-size="12.00"  text-anchor="end">
		<text><tspan font-family="Arial" >Airy</tspan><tspan font-family="Arial"  font-size="9.6" dy="3.60px">B</tspan><tspan font-family="Arial"  font-size="12.0" dy="-3.60px">i(x)</tspan></text>
	</g>
</g>
<g fill="none" color="black" stroke="currentColor" stroke-width="1.00" stroke-linecap="butt" stroke-linejoin="miter">
	<path stroke='rgb(  0, 158, 115)'  d='M541.1,45.1 L583.3,45.1 M92.9,303.2 L93.1,300.7 L93.3,298.3 L93.5,295.8 L93.7,293.3 L93.9,290.9
		L94.2,288.4 L94.4,285.9 L94.6,283.4 L94.8,280.9 L95.0,278.4 L95.2,276.0 L95.4,273.5 L95.6,271.1
		L95.8,268.7 L96.0,266.4 L96.3,264.0 L96.5,261.7 L96.7,259.5 L96.9,257.2 L97.1,255.1 L97.3,252.9
		L97.5,250.9 L97.7,248.8 L97.9,246.9 L98.1,245.0 L98.4,243.1 L98.6,241.3 L98.8,239.6 L99.0,238.0
		L99.2,236.4 L99.4,234.9 L99.6,233.5 L99.8,232.2 L100.0,231.0 L100.2,229.8 L100.5,228.7 L100.7,227.7
		L100.9,226.8 L101.1,226.0 L101.3,225.2 L101.5,224.6 L101.7,224.1 L101.9,223.6 L102.1,223.2 L102.3,223.0
		L102.6,222.8 L102.8,222.7 L103.0,222.7 L103.2,222.9 L103.4,223.1 L103.6,223.4 L103.8,223.7 L104.0,224.2
		L104.2,224.8 L104.4,225.5 L104.7,226.2 L104.9,227.1 L105.1,228.0 L105.3,229.0 L105.5,230.1 L105.7,231.3
		L105.9,232.6 L106.1,233.9 L106.3,235.3 L106.5,236.8 L106.8,238.4 L107.0,240.0 L107.2,241.8 L107.4,243.5
		L107.6,245.4 L107.8,247.3 L108.0,249.2 L108.2,251.2 L108.4,253.3 L108.6,255.4 L108.9,257.6 L109.1,259.8
		L109.3,262.0 L109.5,264.3 L109.7,266.6 L109.9,268.9 L110.1,271.3 L110.3,273.7 L110.5,276.1 L110.7,278.5
		L110.9,281.0 L111.2,283.4 L111.4,285.9 L111.6,288.3 L111.8,290.8 L112.0,293.2 L112.2,295.7 L112.4,298.1
		L112.6,300.5 L112.8,302.9 L113.0,305.3 L113.3,307.6 L113.5,310.0 L113.7,312.3 L113.9,314.5 L114.1,316.7
		L114.3,318.9 L114.5,321.0 L114.7,323.1 L114.9,325.2 L115.1,327.2 L115.4,329.1 L115.6,331.0 L115.8,332.8
		L116.0,334.5 L116.2,336.2 L116.4,337.8 L116.6,339.4 L116.8,340.9 L117.0,342.3 L117.2,343.6 L117.5,344.9
		L117.7,346.0 L117.9,347.1 L118.1,348.1 L118.3,349.1 L118.5,349.9 L118.7,350.7 L118.9,351.3 L119.1,351.9
		L119.3,352.4 L119.6,352.8 L119.8,353.1 L120.0,353.3 L120.2,353.5 L120.4,353.5 L120.6,353.5 L120.8,353.3
		L121.0,353.1 L121.2,352.8 L121.4,352.4 L121.7,351.9 L121.9,351.3 L122.1,350.6 L122.3,349.9 L122.5,349.0
		L122.7,348.1 L122.9,347.1 L123.1,346.0 L123.3,344.9 L123.5,343.6 L123.8,342.3 L124.0,340.9 L124.2,339.5
		L124.4,337.9 L124.6,336.3 L124.8,334.7 L125.0,332.9 L125.2,331.1 L125.4,329.3 L125.6,327.4 L125.9,325.4
		L126.1,323.4 L126.3,321.4 L126.5,319.3 L126.7,317.1 L126.9,314.9 L127.1,312.7 L127.3,310.5 L127.5,308.2
		L127.7,305.9 L128.0,303.5 L128.2,301.2 L128.4,298.8 L128.6,296.4 L128.8,294.0 L129.0,291.6 L129.2,289.2
		L129.4,286.8 L129.6,284.3 L129.8,281.9 L130.1,279.5 L130.3,277.1 L130.5,274.7 L130.7,272.4 L130.9,270.0
		L131.1,267.7 L131.3,265.4 L131.5,263.2 L131.7,260.9 L131.9,258.7 L132.2,256.6 L132.4,254.4 L132.6,252.4
		L132.8,250.3 L133.0,248.4 L133.2,246.4 L133.4,244.6 L133.6,242.7 L133.8,241.0 L134.0,239.3 L134.3,237.6
		L134.5,236.1 L134.7,234.6 L134.9,233.1 L135.1,231.8 L135.3,230.5 L135.5,229.3 L135.7,228.1 L135.9,227.1
		L136.1,226.1 L136.4,225.2 L136.6,224.3 L136.8,223.6 L137.0,222.9 L137.2,222.4 L137.4,221.9 L137.6,221.5
		L137.8,221.1 L138.0,220.9 L138.2,220.7 L138.5,220.7 L138.7,220.7 L138.9,220.8 L139.1,221.0 L139.3,221.3
		L139.5,221.6 L139.7,222.1 L139.9,222.6 L140.1,223.2 L140.3,223.9 L140.6,224.7 L140.8,225.5 L141.0,226.5
		L141.2,227.5 L141.4,228.6 L141.6,229.7 L141.8,231.0 L142.0,232.3 L142.2,233.7 L142.4,235.1 L142.7,236.6
		L142.9,238.2 L143.1,239.8 L143.3,241.5 L143.5,243.3 L143.7,245.1 L143.9,247.0 L144.1,248.9 L144.3,250.9
		L144.5,252.9 L144.8,254.9 L145.0,257.0 L145.2,259.2 L145.4,261.3 L145.6,263.6 L145.8,265.8 L146.0,268.0
		L146.2,270.3 L146.4,272.6 L146.6,275.0 L146.9,277.3 L147.1,279.7 L147.3,282.0 L147.5,284.4 L147.7,286.8
		L147.9,289.2 L148.1,291.5 L148.3,293.9 L148.5,296.3 L148.7,298.6 L148.9,301.0 L149.2,303.3 L149.4,305.6
		L149.6,307.9 L149.8,310.1 L150.0,312.3 L150.2,314.5 L150.4,316.7 L150.6,318.8 L150.8,320.9 L151.0,323.0
		L151.3,325.0 L151.5,327.0 L151.7,328.9 L151.9,330.7 L152.1,332.5 L152.3,334.3 L152.5,336.0 L152.7,337.6
		L152.9,339.2 L153.1,340.7 L153.4,342.2 L153.6,343.6 L153.8,344.9 L154.0,346.1 L154.2,347.3 L154.4,348.4
		L154.6,349.5 L154.8,350.4 L155.0,351.3 L155.2,352.1 L155.5,352.8 L155.7,353.5 L155.9,354.1 L156.1,354.5
		L156.3,355.0 L156.5,355.3 L156.7,355.5 L156.9,355.7 L157.1,355.8 L157.3,355.8 L157.6,355.7 L157.8,355.6
		L158.0,355.3 L158.2,355.0 L158.4,354.6 L158.6,354.1 L158.8,353.6 L159.0,352.9 L159.2,352.2 L159.4,351.4
		L159.7,350.6 L159.9,349.6 L160.1,348.6 L160.3,347.5 L160.5,346.4 L160.7,345.2 L160.9,343.9 L161.1,342.5
		L161.3,341.1 L161.5,339.6 L161.8,338.1 L162.0,336.5 L162.2,334.8 L162.4,333.1 L162.6,331.3 L162.8,329.5
		L163.0,327.6 L163.2,325.7 L163.4,323.7 L163.6,321.7 L163.9,319.7 L164.1,317.6 L164.3,315.5 L164.5,313.4
		L164.7,311.2 L164.9,309.0 L165.1,306.7 L165.3,304.5 L165.5,302.2 L165.7,299.9 L166.0,297.6 L166.2,295.3
		L166.4,293.0 L166.6,290.7 L166.8,288.3 L167.0,286.0 L167.2,283.7 L167.4,281.4 L167.6,279.0 L167.8,276.7
		L168.1,274.4 L168.3,272.1 L168.5,269.9 L168.7,267.6 L168.9,265.4 L169.1,263.2 L169.3,261.1 L169.5,258.9
		L169.7,256.8 L169.9,254.7 L170.2,252.7 L170.4,250.7 L170.6,248.8 L170.8,246.9 L171.0,245.0 L171.2,243.2
		L171.4,241.4 L171.6,239.7 L171.8,238.1 L172.0,236.5 L172.3,234.9 L172.5,233.4 L172.7,232.0 L172.9,230.6
		L173.1,229.3 L173.3,228.1 L173.5,226.9 L173.7,225.8 L173.9,224.8 L174.1,223.8 L174.4,223.0 L174.6,222.1
		L174.8,221.4 L175.0,220.7 L175.2,220.1 L175.4,219.6 L175.6,219.2 L175.8,218.8 L176.0,218.5 L176.2,218.3
		L176.5,218.1 L176.7,218.1 L176.9,218.1 L177.1,218.2 L177.3,218.3 L177.5,218.6 L177.7,218.9 L177.9,219.3
		L178.1,219.7 L178.3,220.3 L178.6,220.9 L178.8,221.6 L179.0,222.3 L179.2,223.2 L179.4,224.1 L179.6,225.0
		L179.8,226.1 L180.0,227.2 L180.2,228.4 L180.4,229.6 L180.7,230.9 L180.9,232.2 L181.1,233.7 L181.3,235.1
		L181.5,236.7 L181.7,238.3 L181.9,239.9 L182.1,241.6 L182.3,243.3 L182.5,245.1 L182.8,247.0 L183.0,248.8
		L183.2,250.8 L183.4,252.7 L183.6,254.7 L183.8,256.7 L184.0,258.8 L184.2,260.9 L184.4,263.0 L184.6,265.2
		L184.9,267.4 L185.1,269.6 L185.3,271.8 L185.5,274.0 L185.7,276.2 L185.9,278.5 L186.1,280.8 L186.3,283.1
		L186.5,285.3 L186.7,287.6 L186.9,289.9 L187.2,292.2 L187.4,294.5 L187.6,296.7 L187.8,299.0 L188.0,301.2
		L188.2,303.5 L188.4,305.7 L188.6,307.9 L188.8,310.0 L189.0,312.2 L189.3,314.3 L189.5,316.4 L189.7,318.5
		L189.9,320.5 L190.1,322.5 L190.3,324.5 L190.5,326.4 L190.7,328.3 L190.9,330.2 L191.1,332.0 L191.4,333.7
		L191.6,335.4 L191.8,337.1 L192.0,338.7 L192.2,340.3 L192.4,341.8 L192.6,343.2 L192.8,344.6 L193.0,345.9
		L193.2,347.2 L193.5,348.4 L193.7,349.6 L193.9,350.7 L194.1,351.7 L194.3,352.6 L194.5,353.5 L194.7,354.3
		L194.9,355.1 L195.1,355.8 L195.3,356.4 L195.6,357.0 L195.8,357.4 L196.0,357.8 L196.2,358.2 L196.4,358.4
		L196.6,358.6 L196.8,358.8 L197.0,358.8 L197.2,358.8 L197.4,358.7 L197.7,358.5 L197.9,358.3 L198.1,358.0
		L198.3,357.6 L198.5,357.2 L198.7,356.7 L198.9,356.1 L199.1,355.4 L199.3,354.7 L199.5,353.9 L199.8,353.1
		L200.0,352.2 L200.2,351.2 L200.4,350.2 L200.6,349.1 L200.8,347.9 L201.0,346.7 L201.2,345.4 L201.4,344.1
		L201.6,342.7 L201.9,341.2 L202.1,339.7 L202.3,338.2 L202.5,336.6 L202.7,334.9 L202.9,333.2 L203.1,331.5
		L203.3,329.7 L203.5,327.9 L203.7,326.0 L204.0,324.1 L204.2,322.2 L204.4,320.2 L204.6,318.2 L204.8,316.2
		L205.0,314.1 L205.2,312.0 L205.4,309.9 L205.6,307.8 L205.8,305.7 L206.1,303.5 L206.3,301.3 L206.5,299.1
		L206.7,296.9 L206.9,294.7 L207.1,292.5 L207.3,290.3 L207.5,288.0 L207.7,285.8 L207.9,283.6 L208.2,281.4
		L208.4,279.1 L208.6,276.9 L208.8,274.7 L209.0,272.6 L209.2,270.4 L209.4,268.2 L209.6,266.1 L209.8,264.0
		L210.0,261.9 L210.3,259.8 L210.5,257.8 L210.7,255.8 L210.9,253.8 L211.1,251.8 L211.3,249.9 L211.5,248.0
		L211.7,246.2 L211.9,244.4 L212.1,242.6 L212.4,240.9 L212.6,239.2 L212.8,237.5 L213.0,236.0 L213.2,234.4
		L213.4,232.9 L213.6,231.5 L213.8,230.1 L214.0,228.7 L214.2,227.5 L214.5,226.2 L214.7,225.1 L214.9,223.9
		L215.1,222.9 L215.3,221.9 L215.5,221.0 L215.7,220.1 L215.9,219.3 L216.1,218.5 L216.3,217.8 L216.6,217.2
		L216.8,216.6 L217.0,216.2 L217.2,215.7 L217.4,215.4 L217.6,215.1 L217.8,214.8 L218.0,214.7 L218.2,214.6
		L218.4,214.5 L218.7,214.6 L218.9,214.6 L219.1,214.8 L219.3,215.0 L219.5,215.3 L219.7,215.7 L219.9,216.1
		L220.1,216.6 L220.3,217.1 L220.5,217.8 L220.8,218.4 L221.0,219.2 L221.2,220.0 L221.4,220.8 L221.6,221.7
		L221.8,222.7 L222.0,223.7 L222.2,224.8 L222.4,226.0 L222.6,227.2 L222.9,228.4 L223.1,229.7 L223.3,231.1
		L223.5,232.5 L223.7,233.9 L223.9,235.4 L224.1,237.0 L224.3,238.6 L224.5,240.2 L224.7,241.9 L224.9,243.6
		L225.2,245.4 L225.4,247.2 L225.6,249.0 L225.8,250.8 L226.0,252.7 L226.2,254.6 L226.4,256.6 L226.6,258.6
		L226.8,260.6 L227.0,262.6 L227.3,264.6 L227.5,266.7 L227.7,268.8 L227.9,270.9 L228.1,273.0 L228.3,275.1
		L228.5,277.3 L228.7,279.4 L228.9,281.6 L229.1,283.7 L229.4,285.9 L229.6,288.1 L229.8,290.2 L230.0,292.4
		L230.2,294.5 L230.4,296.7 L230.6,298.8 L230.8,301.0 L231.0,303.1 L231.2,305.2 L231.5,307.3 L231.7,309.4
		L231.9,311.4 L232.1,313.5 L232.3,315.5 L232.5,317.5 L232.7,319.5 L232.9,321.4 L233.1,323.3 L233.3,325.2
		L233.6,327.1 L233.8,328.9 L234.0,330.7 L234.2,332.4 L234.4,334.1 L234.6,335.8 L234.8,337.4 L235.0,339.0
		L235.2,340.6 L235.4,342.1 L235.7,343.6 L235.9,345.0 L236.1,346.4 L236.3,347.7 L236.5,349.0 L236.7,350.2
		L236.9,351.4 L237.1,352.5 L237.3,353.6 L237.5,354.6 L237.8,355.5 L238.0,356.4 L238.2,357.3 L238.4,358.1
		L238.6,358.8 L238.8,359.5 L239.0,360.1 L239.2,360.7 L239.4,361.2 L239.6,361.6 L239.9,362.0 L240.1,362.4
		L240.3,362.6 L240.5,362.8 L240.7,363.0 L240.9,363.1 L241.1,363.1 L241.3,363.1 L241.5,363.0 L241.7,362.8
		L242.0,362.6 L242.2,362.4 L242.4,362.0 L242.6,361.6 L242.8,361.2 L243.0,360.7 L243.2,360.1 L243.4,359.5
		L243.6,358.8 L243.8,358.1 L244.1,357.3 L244.3,356.5 L244.5,355.6 L244.7,354.7 L244.9,353.7 L245.1,352.6
		L245.3,351.5 L245.5,350.4 L245.7,349.2 L245.9,347.9 L246.2,346.6 L246.4,345.3 L246.6,343.9 L246.8,342.5
		L247.0,341.0 L247.2,339.5 L247.4,338.0 L247.6,336.4 L247.8,334.8 L248.0,333.1 L248.3,331.4 L248.5,329.7
		L248.7,327.9 L248.9,326.1 L249.1,324.3 L249.3,322.5 L249.5,320.6 L249.7,318.7 L249.9,316.8 L250.1,314.9
		L250.4,312.9 L250.6,310.9 L250.8,308.9 L251.0,306.9 L251.2,304.9 L251.4,302.8 L251.6,300.8 L251.8,298.7
		L252.0,296.6 L252.2,294.6 L252.5,292.5 L252.7,290.4 L252.9,288.3 L253.1,286.2 L253.3,284.1 L253.5,282.0
		L253.7,280.0 L253.9,277.9 L254.1,275.8 L254.3,273.8 L254.6,271.7 L254.8,269.7 L255.0,267.7 L255.2,265.6
		L255.4,263.6 L255.6,261.7 L255.8,259.7 L256.0,257.8 L256.2,255.9 L256.4,254.0 L256.7,252.1 L256.9,250.3
		L257.1,248.4 L257.3,246.6 L257.5,244.9 L257.7,243.2 L257.9,241.5 L258.1,239.8 L258.3,238.2 L258.5,236.6
		L258.8,235.0 L259.0,233.5 L259.2,232.0 L259.4,230.6 L259.6,229.2 L259.8,227.8 L260.0,226.5 L260.2,225.2
		L260.4,224.0 L260.6,222.8 L260.9,221.7 L261.1,220.6 L261.3,219.5 L261.5,218.5 L261.7,217.6 L261.9,216.6
		L262.1,215.8 L262.3,215.0 L262.5,214.2 L262.7,213.5 L262.9,212.9 L263.2,212.3 L263.4,211.7 L263.6,211.2
		L263.8,210.8 L264.0,210.4 L264.2,210.1 L264.4,209.8 L264.6,209.5 L264.8,209.4 L265.0,209.2 L265.3,209.2
		L265.5,209.1 L265.7,209.2 L265.9,209.3 L266.1,209.4 L266.3,209.6 L266.5,209.8 L266.7,210.1 L266.9,210.5
		L267.1,210.9 L267.4,211.3 L267.6,211.8 L267.8,212.4 L268.0,213.0 L268.2,213.6 L268.4,214.4 L268.6,215.1
		L268.8,215.9 L269.0,216.8 L269.2,217.6 L269.5,218.6 L269.7,219.6 L269.9,220.6 L270.1,221.7 L270.3,222.8
		L270.5,224.0 L270.7,225.2 L270.9,226.4 L271.1,227.7 L271.3,229.0 L271.6,230.4 L271.8,231.8 L272.0,233.2
		L272.2,234.7 L272.4,236.2 L272.6,237.7 L272.8,239.3 L273.0,240.9 L273.2,242.5 L273.4,244.2 L273.7,245.8
		L273.9,247.6 L274.1,249.3 L274.3,251.1 L274.5,252.8 L274.7,254.7 L274.9,256.5 L275.1,258.3 L275.3,260.2
		L275.5,262.1 L275.8,264.0 L276.0,265.9 L276.2,267.8 L276.4,269.8 L276.6,271.7 L276.8,273.7 L277.0,275.7
		L277.2,277.6 L277.4,279.6 L277.6,281.6 L277.9,283.6 L278.1,285.6 L278.3,287.6 L278.5,289.6 L278.7,291.6
		L278.9,293.6 L279.1,295.6 L279.3,297.6 L279.5,299.5 L279.7,301.5 L280.0,303.5 L280.2,305.4 L280.4,307.4
		L280.6,309.3 L280.8,311.2 L281.0,313.1 L281.2,315.0 L281.4,316.9 L281.6,318.7 L281.8,320.6 L282.1,322.4
		L282.3,324.2 L282.5,326.0 L282.7,327.7 L282.9,329.4 L283.1,331.1 L283.3,332.8 L283.5,334.5 L283.7,336.1
		L283.9,337.7 L284.2,339.2 L284.4,340.8 L284.6,342.3 L284.8,343.7 L285.0,345.2 L285.2,346.6 L285.4,348.0
		L285.6,349.3 L285.8,350.6 L286.0,351.8 L286.3,353.1 L286.5,354.3 L286.7,355.4 L286.9,356.5 L287.1,357.6
		L287.3,358.6 L287.5,359.6 L287.7,360.5 L287.9,361.4 L288.1,362.3 L288.4,363.1 L288.6,363.9 L288.8,364.6
		L289.0,365.3 L289.2,366.0 L289.4,366.6 L289.6,367.1 L289.8,367.6 L290.0,368.1 L290.2,368.5 L290.5,368.9
		L290.7,369.2 L290.9,369.5 L291.1,369.8 L291.3,370.0 L291.5,370.1 L291.7,370.2 L291.9,370.3 L292.1,370.3
		L292.3,370.2 L292.6,370.2 L292.8,370.0 L293.0,369.9 L293.2,369.7 L293.4,369.4 L293.6,369.1 L293.8,368.7
		L294.0,368.4 L294.2,367.9 L294.4,367.4 L294.7,366.9 L294.9,366.4 L295.1,365.7 L295.3,365.1 L295.5,364.4
		L295.7,363.7 L295.9,362.9 L296.1,362.1 L296.3,361.2 L296.5,360.3 L296.8,359.4 L297.0,358.4 L297.2,357.4
		L297.4,356.4 L297.6,355.3 L297.8,354.2 L298.0,353.1 L298.2,351.9 L298.4,350.7 L298.6,349.4 L298.8,348.1
		L299.1,346.8 L299.3,345.5 L299.5,344.1 L299.7,342.7 L299.9,341.3 L300.1,339.8 L300.3,338.3 L300.5,336.8
		L300.7,335.3 L300.9,333.7 L301.2,332.1 L301.4,330.5 L301.6,328.9 L301.8,327.2 L302.0,325.6 L302.2,323.9
		L302.4,322.2 L302.6,320.5 L302.8,318.7 L303.0,317.0 L303.3,315.2 L303.5,313.4 L303.7,311.6 L303.9,309.8
		L304.1,308.0 L304.3,306.1 L304.5,304.3 L304.7,302.5 L304.9,300.6 L305.1,298.7 L305.4,296.9 L305.6,295.0
		L305.8,293.1 L306.0,291.3 L306.2,289.4 L306.4,287.5 L306.6,285.6 L306.8,283.7 L307.0,281.9 L307.2,280.0
		L307.5,278.1 L307.7,276.2 L307.9,274.4 L308.1,272.5 L308.3,270.7 L308.5,268.8 L308.7,267.0 L308.9,265.2
		L309.1,263.4 L309.3,261.6 L309.6,259.8 L309.8,258.0 L310.0,256.3 L310.2,254.5 L310.4,252.8 L310.6,251.1
		L310.8,249.4 L311.0,247.7 L311.2,246.0 L311.4,244.4 L311.7,242.8 L311.9,241.2 L312.1,239.6 L312.3,238.0
		L312.5,236.5 L312.7,235.0 L312.9,233.5 L313.1,232.0 L313.3,230.6 L313.5,229.2 L313.8,227.8 L314.0,226.5
		L314.2,225.1 L314.4,223.8 L314.6,222.5 L314.8,221.3 L315.0,220.1 L315.2,218.9 L315.4,217.7 L315.6,216.6
		L315.9,215.5 L316.1,214.4 L316.3,213.4 L316.5,212.4 L316.7,211.4 L316.9,210.5 L317.1,209.6 L317.3,208.7
		L317.5,207.9 L317.7,207.1 L318.0,206.3 L318.2,205.6 L318.4,204.9 L318.6,204.3 L318.8,203.6 L319.0,203.1
		L319.2,202.5 L319.4,202.0 L319.6,201.5 L319.8,201.1 L320.1,200.7 L320.3,200.3 L320.5,199.9 L320.7,199.6
		L320.9,199.4 L321.1,199.2 L321.3,199.0 L321.5,198.8 L321.7,198.7 L321.9,198.6 L322.2,198.6 L322.4,198.6
		L322.6,198.6 L322.8,198.7 L323.0,198.8 L323.2,198.9 L323.4,199.1 L323.6,199.3 L323.8,199.5 L324.0,199.8
		L324.3,200.1 L324.5,200.5 L324.7,200.9 L324.9,201.3 L325.1,201.7 L325.3,202.2 L325.5,202.7 L325.7,203.3
		L325.9,203.9 L326.1,204.5 L326.4,205.1 L326.6,205.8 L326.8,206.5 L327.0,207.3 L327.2,208.1 L327.4,208.9
		L327.6,209.7 L327.8,210.6 L328.0,211.5 L328.2,212.4 L328.5,213.4 L328.7,214.3 L328.9,215.4 L329.1,216.4
		L329.3,217.5 L329.5,218.5 L329.7,219.7 L329.9,220.8 L330.1,222.0 L330.3,223.2 L330.6,224.4 L330.8,225.6
		L331.0,226.9 L331.2,228.2 L331.4,229.5 L331.6,230.8 L331.8,232.1 L332.0,233.5 L332.2,234.9 L332.4,236.3
		L332.7,237.7 L332.9,239.1 L333.1,240.6 L333.3,242.1 L333.5,243.6 L333.7,245.1 L333.9,246.6 L334.1,248.1
		L334.3,249.7 L334.5,251.3 L334.8,252.8 L335.0,254.4 L335.2,256.0 L335.4,257.6 L335.6,259.2 L335.8,260.9
		L336.0,262.5 L336.2,264.2 L336.4,265.8 L336.6,267.5 L336.8,269.2 L337.1,270.8 L337.3,272.5 L337.5,274.2
		L337.7,275.9 L337.9,277.6 L338.1,279.3 L338.3,281.0 L338.5,282.7 L338.7,284.4 L338.9,286.1 L339.2,287.8
		L339.4,289.5 L339.6,291.2 L339.8,292.9 L340.0,294.6 L340.2,296.3 L340.4,298.0 L340.6,299.7 L340.8,301.4
		L341.0,303.1 L341.3,304.8 L341.5,306.5 L341.7,308.2 L341.9,309.8 L342.1,311.5 L342.3,313.1 L342.5,314.8
		L342.7,316.4 L342.9,318.0 L343.1,319.6 L343.4,321.2 L343.6,322.8 L343.8,324.4 L344.0,326.0 L344.2,327.6
		L344.4,329.1 L344.6,330.6 L344.8,332.2 L345.0,333.7 L345.2,335.2 L345.5,336.7 L345.7,338.1 L345.9,339.6
		L346.1,341.0 L346.3,342.4 L346.5,343.8 L346.7,345.2 L346.9,346.6 L347.1,348.0 L347.3,349.3 L347.6,350.6
		L347.8,351.9 L348.0,353.2 L348.2,354.5 L348.4,355.7 L348.6,357.0 L348.8,358.2 L349.0,359.4 L349.2,360.5
		L349.4,361.7 L349.7,362.8 L349.9,363.9 L350.1,365.0 L350.3,366.0 L350.5,367.1 L350.7,368.1 L350.9,369.1
		L351.1,370.1 L351.3,371.0 L351.5,372.0 L351.8,372.9 L352.0,373.8 L352.2,374.6 L352.4,375.5 L352.6,376.3
		L352.8,377.1 L353.0,377.9 L353.2,378.6 L353.4,379.3 L353.6,380.0 L353.9,380.7 L354.1,381.4 L354.3,382.0
		L354.5,382.6 L354.7,383.2 L354.9,383.7 L355.1,384.3 L355.3,384.8 L355.5,385.2 L355.7,385.7 L356.0,386.1
		L356.2,386.5 L356.4,386.9 L356.6,387.3 L356.8,387.6 L357.0,387.9 L357.2,388.2 L357.4,388.5 L357.6,388.7
		L357.8,389.0 L358.1,389.1 L358.3,389.3 L358.5,389.5 L358.7,389.6 L358.9,389.7 L359.1,389.7 L359.3,389.8
		L359.5,389.8 L359.7,389.8 L359.9,389.8 L360.2,389.7 L360.4,389.7 L360.6,389.6 L360.8,389.5 L361.0,389.3
		L361.2,389.2 L361.4,389.0 L361.6,388.8 L361.8,388.6 L362.0,388.3 L362.3,388.0 L362.5,387.7 L362.7,387.4
		L362.9,387.1 L363.1,386.7 L363.3,386.4 L363.5,386.0 L363.7,385.5 L363.9,385.1 L364.1,384.6 L364.4,384.2
		L364.6,383.7 L364.8,383.1 L365.0,382.6 L365.2,382.0 L365.4,381.5 L365.6,380.9 L365.8,380.2 L366.0,379.6
		L366.2,379.0 L366.5,378.3 L366.7,377.6 L366.9,376.9 L367.1,376.2 L367.3,375.4 L367.5,374.7 L367.7,373.9
		L367.9,373.1 L368.1,372.3 L368.3,371.5 L368.6,370.6 L368.8,369.8 L369.0,368.9 L369.2,368.0 L369.4,367.1
		L369.6,366.2 L369.8,365.3 L370.0,364.3 L370.2,363.4 L370.4,362.4 L370.7,361.4 L370.9,360.4 L371.1,359.4
		L371.3,358.4 L371.5,357.3 L371.7,356.3 L371.9,355.2 L372.1,354.2 L372.3,353.1 L372.5,352.0 L372.8,350.9
		L373.0,349.8 L373.2,348.6 L373.4,347.5 L373.6,346.4 L373.8,345.2 L374.0,344.1 L374.2,342.9 L374.4,341.7
		L374.6,340.5 L374.8,339.3 L375.1,338.1 L375.3,336.9 L375.5,335.7 L375.7,334.4 L375.9,333.2 L376.1,332.0
		L376.3,330.7 L376.5,329.5 L376.7,328.2 L376.9,326.9 L377.2,325.6 L377.4,324.4 L377.6,323.1 L377.8,321.8
		L378.0,320.5 L378.2,319.2 L378.4,317.9 L378.6,316.6 L378.8,315.3 L379.0,314.0 L379.3,312.6 L379.5,311.3
		L379.7,310.0 L379.9,308.7 L380.1,307.3 L380.3,306.0 L380.5,304.7 L380.7,303.3 L380.9,302.0 L381.1,300.6
		L381.4,299.3 L381.6,297.9 L381.8,296.6 L382.0,295.2 L382.2,293.9 L382.4,292.5 L382.6,291.2 L382.8,289.8
		L383.0,288.5 L383.2,287.1 L383.5,285.8 L383.7,284.4 L383.9,283.1 L384.1,281.7 L384.3,280.4 L384.5,279.0
		L384.7,277.7 L384.9,276.3 L385.1,275.0 L385.3,273.6 L385.6,272.3 L385.8,271.0 L386.0,269.6 L386.2,268.3
		L386.4,266.9 L386.6,265.6 L386.8,264.3 L387.0,262.9 L387.2,261.6 L387.4,260.3 L387.7,259.0 L387.9,257.7
		L388.1,256.3 L388.3,255.0 L388.5,253.7 L388.7,252.4 L388.9,251.1 L389.1,249.8 L389.3,248.5 L389.5,247.2
		L389.8,245.9 L390.0,244.6 L390.2,243.4 L390.4,242.1 L390.6,240.8 L390.8,239.5 L391.0,238.3 L391.2,237.0
		L391.4,235.7 L391.6,234.5 L391.9,233.2 L392.1,232.0 L392.3,230.7 L392.5,229.5 L392.7,228.3 L392.9,227.0
		L393.1,225.8 L393.3,224.6 L393.5,223.4 L393.7,222.2 L394.0,220.9 L394.2,219.7 L394.4,218.5 L394.6,217.3
		L394.8,216.2 L395.0,215.0 L395.2,213.8 L395.4,212.6 L395.6,211.4 L395.8,210.3 L396.1,209.1 L396.3,207.9
		L396.5,206.8 L396.7,205.6 L396.9,204.5 L397.1,203.3 L397.3,202.2 L397.5,201.1 L397.7,199.9 L397.9,198.8
		L398.2,197.7 L398.4,196.6 L398.6,195.5 L398.8,194.4 L399.0,193.2 L399.2,192.1 L399.4,191.0 L399.6,190.0
		L399.8,188.9 L400.0,187.8 L400.3,186.7 L400.5,185.6 L400.7,184.5 L400.9,183.5 L401.1,182.4 L401.3,181.3
		L401.5,180.3 L401.7,179.2 L401.9,178.2 L402.1,177.1 L402.4,176.1 L402.6,175.0 L402.8,174.0 L403.0,172.9
		L403.2,171.9 L403.4,170.9 L403.6,169.8 L403.8,168.8 L404.0,167.8 L404.2,166.7 L404.5,165.7 L404.7,164.7
		L404.9,163.7 L405.1,162.7 L405.3,161.6 L405.5,160.6 L405.7,159.6 L405.9,158.6 L406.1,157.6 L406.3,156.6
		L406.6,155.6 L406.8,154.6 L407.0,153.5 L407.2,152.5 L407.4,151.5 L407.6,150.5 L407.8,149.5 L408.0,148.5
		L408.2,147.5 L408.4,146.5 L408.7,145.5 L408.9,144.5 L409.1,143.5 L409.3,142.5 L409.5,141.4 L409.7,140.4
		L409.9,139.4 L410.1,138.4 L410.3,137.4 L410.5,136.4 L410.8,135.4 L411.0,134.3 L411.2,133.3 L411.4,132.3
		L411.6,131.2 L411.8,130.2 L412.0,129.2 L412.2,128.1 L412.4,127.1 L412.6,126.1 L412.8,125.0 L413.1,123.9
		L413.3,122.9 L413.5,121.8 L413.7,120.8 L413.9,119.7 L414.1,118.6 L414.3,117.5 L414.5,116.4 L414.7,115.4
		L414.9,114.3 L415.2,113.2 L415.4,112.0 L415.6,110.9 L415.8,109.8 L416.0,108.7 L416.2,107.5 L416.4,106.4
		L416.6,105.3 L416.8,104.1 L417.0,102.9 L417.3,101.8 L417.5,100.6 L417.7,99.4 L417.9,98.2 L418.1,97.0
		L418.3,95.8 L418.5,94.5 L418.7,93.3 L418.9,92.0 L419.1,90.8 L419.4,89.5 L419.6,88.2 L419.8,86.9
		L420.0,85.6 L420.2,84.3 L420.4,83.0 L420.6,81.7 L420.8,80.3 L421.0,78.9 L421.2,77.6 L421.5,76.2
		L421.7,74.8 L421.9,73.4 L422.1,71.9 L422.3,70.5 L422.5,69.0 L422.7,67.5 L422.9,66.0 L423.1,64.5
		L423.3,63.0 L423.6,61.5 L423.8,59.9 L424.0,58.3 L424.2,56.7 L424.4,55.1 L424.6,53.5 L424.8,51.8
		L425.0,50.2 L425.2,48.5 L425.4,46.8 L425.7,45.1 L425.9,43.3 L426.1,41.5 L426.3,39.7 L426.5,37.9
		L426.7,36.1 L426.9,34.2 L427.1,32.4 L427.3,30.5 L427.5,28.5 L427.8,26.6 L428.0,24.6 L428.2,22.6
		L428.4,20.6 L428.6,18.5  '/></g>
	</g>
<g fill="none" color="white" stroke="rgb(  0, 158, 115)" stroke-width="2.00" stroke-linecap="butt" stroke-linejoin="miter">
</g>
<g fill="none" color="black" stroke="currentColor" stroke-width="2.00" stroke-linecap="butt" stroke-linejoin="miter">
</g>
<g fill="none" color="black" stroke="black" stroke-width="1.00" stroke-linecap="butt" stroke-linejoin="miter">
</g>
<g fill="none" color="black" stroke="currentColor" stroke-width="1.00" stroke-linecap="butt" stroke-linejoin="miter">
	<path stroke='black'  d='M71.9,18.1 L71.9,422.4 L449.8,422.4 L449.8,18.1 L71.9,18.1 Z  '/></g>
<g fill="none" color="black" stroke="currentColor" stroke-width="1.00" stroke-linecap="butt" stroke-linejoin="miter">
</g>
</g>
</svg>

