    1 -8.500e+00 -3.500e+00 f() = 573896.500 size = 0.882
    2 -6.250e+00 -4.750e+00 f() = 192006.078 size = 1.364
    3 -4.125e+00 -2.375e+00 f() = 37625.899 size = 2.033
    4  1.438e+00 -3.687e+00 f() = 3310.935 size = 3.384
    5  1.438e+00 -3.687e+00 f() = 3310.935 size = 3.384
    6 -8.125e-01 -2.437e+00 f() = 962.833 size = 2.033
    7 -8.125e-01 -2.437e+00 f() = 962.833 size = 1.364
    8 -8.125e-01 -2.437e+00 f() = 962.833 size = 0.882
    9  6.875e-01 -1.937e+00 f() = 580.983 size = 0.882
   10 -5.625e-01  3.125e-01 f() =   2.443 size = 1.364
   11  9.375e-01  8.125e-01 f() =   0.445 size = 1.364
   12  9.375e-01  8.125e-01 f() =   0.445 size = 0.882
   13  9.375e-01  8.125e-01 f() =   0.445 size = 0.712
   14  6.250e-01  3.750e-01 f() =   0.165 size = 0.356
   15  6.250e-01  3.750e-01 f() =   0.165 size = 0.260
   16  6.250e-01  3.750e-01 f() =   0.165 size = 0.230
   17  6.250e-01  3.750e-01 f() =   0.165 size = 0.222
   18  6.250e-01  3.750e-01 f() =   0.165 size = 0.220
   19  6.250e-01  3.750e-01 f() =   0.165 size = 0.141
   20  6.678e-01  4.694e-01 f() =   0.165 size = 0.077
   21  7.347e-01  5.255e-01 f() =   0.091 size = 0.077
   22  8.539e-01  7.423e-01 f() =   0.039 size = 0.141
   23  8.539e-01  7.423e-01 f() =   0.039 size = 0.112
   24  8.539e-01  7.423e-01 f() =   0.039 size = 0.112
   25  8.539e-01  7.423e-01 f() =   0.039 size = 0.112
   26  1.031e+00  1.081e+00 f() =   0.034 size = 0.157
   27  9.595e-01  9.222e-01 f() =   0.002 size = 0.156
   28  9.595e-01  9.222e-01 f() =   0.002 size = 0.099
   29  9.595e-01  9.222e-01 f() =   0.002 size = 0.099
   30  9.595e-01  9.222e-01 f() =   0.002 size = 0.097
   31  1.024e+00  1.046e+00 f() =   0.001 size = 0.058
   32  1.024e+00  1.046e+00 f() =   0.001 size = 0.057
   33  9.851e-01  9.705e-01 f() =   0.000 size = 0.036
   34  9.851e-01  9.705e-01 f() =   0.000 size = 0.036
   35  1.011e+00  1.022e+00 f() =   0.000 size = 0.028
   36  1.011e+00  1.022e+00 f() =   0.000 size = 0.025
   37  9.964e-01  9.933e-01 f() =   0.000 size = 0.013
   38  9.964e-01  9.933e-01 f() =   0.000 size = 0.013
#converged to minimum at 
   39  1.005e+00  1.010e+00 f() =   0.000 size = 0.008
