# t[i], y[i], e[i]
0.47 5.49 0.26
1.41 4.08 0.12
2.36 3.54 0.27
3.3 2.61 0.1
4.24 2.09 0.15
5.18 1.91 0.11
6.13 1.55 0.13
7.07 1.47 0.07
8.01 1.45 0.15
8.95 1.25 0.09


# Fitted values
# A		T	B
# 5.1243	2.7281	1.0841
# Thus estimated lifetime is 2.7281
# t	 A*exp(-t/T+B)
0.47	5.39745
0.6396	5.13746
0.8092	4.89314
0.9788	4.66355
1.1484	4.4478
1.318	4.24505
1.4876	4.05452
1.6572	3.87548
1.8268	3.70723
1.9964	3.54912
2.166	3.40054
2.3356	3.26092
2.5052	3.12971
2.6748	3.00641
2.8444	2.89054
3.014	2.78166
3.1836	2.67934
3.3532	2.58319
3.5228	2.49283
3.6924	2.40792
3.862	2.32813
4.0316	2.25314
4.2012	2.18268
4.3708	2.11646
4.5404	2.05424
4.71	1.99576
4.8796	1.94081
5.0492	1.88917
5.2188	1.84065
5.3884	1.79505
5.558	1.7522
5.7276	1.71193
5.8972	1.67409
6.0668	1.63853
6.2364	1.60511
6.406	1.57371
6.5756	1.5442
6.7452	1.51646
6.9148	1.4904
7.0844	1.46591
7.254	1.4429
7.4236	1.42128
7.5932	1.40095
7.7628	1.38186
7.9324	1.36391
8.102	1.34704
8.2716	1.3312
8.4412	1.3163
8.6108	1.30231
8.7804	1.28916
8.95	1.2768
9.1196	1.26518
